1.9073e-04 1.7579e-06
2.0800e-04 1.7579e-06
2.2682e-04 1.7579e-06
2.4735e-04 1.7579e-06
2.6974e-04 1.7579e-06
2.9415e-04 1.1526e-06
3.2078e-04 1.1526e-06
3.4981e-04 1.1526e-06
3.8147e-04 1.1526e-06
4.1600e-04 1.0576e-06
4.5365e-04 1.0576e-06
4.9471e-04 1.0576e-06
5.3948e-04 1.0576e-06
5.8831e-04 9.2116e-07
6.4155e-04 9.2116e-07
6.9962e-04 8.6630e-07
7.6294e-04 8.6630e-07
8.3199e-04 7.7327e-07
9.0729e-04 7.7327e-07
9.8941e-04 7.4989e-07
1.0790e-03 7.4989e-07
1.1766e-03 6.8601e-07
1.2831e-03 6.7040e-07
1.3992e-03 6.2373e-07
1.5259e-03 6.0674e-07
1.6640e-03 5.7324e-07
1.8146e-03 5.6624e-07
1.9788e-03 5.3662e-07
2.1579e-03 5.2360e-07
2.3532e-03 4.7826e-07
2.5662e-03 4.4978e-07
2.7985e-03 4.2364e-07
3.0518e-03 3.9780e-07
3.3280e-03 3.6616e-07
3.6292e-03 3.4541e-07
3.9576e-03 3.1793e-07
4.3158e-03 2.9946e-07
4.7065e-03 2.7606e-07
5.1324e-03 2.4869e-07
5.5969e-03 2.3605e-07
6.1035e-03 2.1660e-07
6.6559e-03 2.0091e-07
7.2583e-03 1.8635e-07
7.9153e-03 1.7022e-07
8.6317e-03 1.5885e-07
9.4129e-03 1.4488e-07
1.0265e-02 1.3213e-07
1.1194e-02 1.2143e-07
1.2207e-02 1.1092e-07
1.3312e-02 1.0116e-07
1.4517e-02 9.2968e-08
1.5831e-02 8.4658e-08
1.7263e-02 7.6972e-08
1.8826e-02 6.9663e-08
2.0530e-02 6.3728e-08
2.2388e-02 5.8839e-08
2.4414e-02 5.3910e-08
2.6624e-02 4.9774e-08
2.9033e-02 4.6096e-08
3.1661e-02 4.3020e-08
3.4527e-02 4.0707e-08
3.7652e-02 3.8815e-08
4.1059e-02 3.7757e-08
4.4776e-02 3.7931e-08
4.8828e-02 3.8755e-08
5.3247e-02 3.9476e-08
5.8067e-02 4.0025e-08
6.3322e-02 4.0025e-08
6.9053e-02 4.0582e-08
7.5303e-02 4.3218e-08
8.2119e-02 4.8566e-08
8.9551e-02 5.9020e-08
9.7656e-02 7.5683e-08
1.0649e-01 1.0008e-07
1.1613e-01 1.4093e-07
1.2664e-01 1.9876e-07
1.3811e-01 2.8162e-07
1.5061e-01 3.7873e-07
1.6424e-01 4.7025e-07
1.7910e-01 5.3580e-07
1.9531e-01 5.8389e-07
2.1299e-01 5.9841e-07
2.3227e-01 5.7943e-07
2.5329e-01 5.4075e-07
2.7621e-01 4.9469e-07
3.0121e-01 4.5534e-07
3.2848e-01 4.2299e-07
3.5820e-01 3.8755e-07
3.9062e-01 3.5183e-07
4.2598e-01 3.1357e-07
4.6453e-01 2.7990e-07
5.0658e-01 2.4869e-07
5.5243e-01 2.1995e-07
6.0243e-01 1.8607e-07
6.5695e-01 1.5500e-07
7.1641e-01 1.2677e-07
7.8125e-01 1.0431e-07
8.5196e-01 8.7030e-08
9.2907e-01 7.1724e-08
1.0132e+00 5.9566e-08
1.1049e+00 5.0080e-08
1.2049e+00 4.3086e-08
1.3139e+00 3.7584e-08
1.4328e+00 3.3189e-08
1.5625e+00 3.1022e-08
1.7039e+00 2.8907e-08
1.8581e+00 2.7521e-08
2.0263e+00 2.8336e-08
2.2097e+00 2.8249e-08
2.4097e+00 2.7691e-08
2.6278e+00 2.8379e-08
2.8656e+00 2.8730e-08
3.1250e+00 2.9444e-08
3.4078e+00 2.9808e-08
3.7163e+00 2.9808e-08
4.0526e+00 2.8951e-08
4.4194e+00 2.8774e-08
4.8194e+00 2.8907e-08
5.2556e+00 2.8907e-08
5.7313e+00 3.0643e-08
6.2500e+00 3.2087e-08
6.8157e+00 3.4277e-08
7.4325e+00 3.7815e-08
8.1052e+00 4.1020e-08
8.8388e+00 4.6594e-08
9.6388e+00 5.1011e-08
1.0511e+01 5.5081e-08
1.1463e+01 5.8569e-08
1.2500e+01 6.1329e-08
1.3631e+01 7.2946e-08
1.4865e+01 8.4658e-08
1.6210e+01 1.0528e-07
1.7678e+01 1.2972e-07
1.9278e+01 1.4599e-07
2.1022e+01 1.7688e-07
2.2925e+01 2.0246e-07
2.5000e+01 2.4081e-07
2.7263e+01 2.8466e-07
2.9730e+01 3.7815e-07
3.2421e+01 5.3992e-07
3.5355e+01 1.0707e-06
3.8555e+01 1.2445e-06
4.2045e+01 1.5101e-06
4.5850e+01 1.9424e-06
5.0000e+01 2.9808e-06
